Mai/Mei ;2018;Fajr;Chourouq;Dhor;Asr;Maghreb;Ichaa;Cha'ban/Ramadan
Ma./Di.;1;04 : 25;06 : 15;13 : 41;17 : 42;21 : 04;22 : 47;15
Me./Wo.;2;04 : 23;06 : 13;13 : 41;17 : 42;21 : 06;22 : 48;16
Je./Do.;3;04 : 20;06 : 11;13 : 41;17 : 44;21 : 08;22 : 50;17
Ve./Vr.;4;04 : 18;06 : 08;13 : 41;17 : 44;21 : 08;22 : 52;18
Sa./Za.;5;04 : 16;06 : 06;13 : 41;17 : 44;21 : 11;22 : 54;19
Di./Zo.;6;04 : 12;06 : 06;13 : 41;17 : 46;21 : 13;22 : 57;20
Lu./Ma.;7;04 : 11;06 : 04;13 : 41;17 : 46;21 : 13;22 : 59;21
Ma./Di.;8;04 : 09;06 : 02;13 : 41;17 : 46;21 : 15;23 : 01;22
Me./Wo.;9;04 : 07;06 : 00;13 : 41;17 : 48;21 : 17;23 : 03;23
Je./Do.;10;04 : 03;05 : 59;13 : 41;17 : 48;21 : 18;23 : 05;24
Ve./Vr.;11;04 : 02;05 : 57;13 : 41;17 : 48;21 : 20;23 : 06;25
Sa./Za.;12;04 : 00;05 : 55;13 : 41;17 : 49;21 : 22;23 : 08;26
Di./Zo.;13;03 : 58;05 : 53;13 : 41;17 : 49;21 : 22;23 : 10;27
Lu./Ma.;14;03 : 56;05 : 53;13 : 41;17 : 51;21 : 24;23 : 12;28
Ma./Di.;15;03 : 54;05 : 50;13 : 41;17 : 51;21 : 26;23 : 15;29
Me./Wo.;16;03 : 51;05 : 50;13 : 41;17 : 51;21 : 27;23 : 17;30
Je./Do.;17*;03 : 49;05 : 48;13 : 41;17 : 53;21 : 29;23 : 19;1
Ve./Vr.;18;03 : 47;05 : 46;13 : 41;17 : 53;21 : 31;23 : 21;2
Sa./Za.;19;03 : 45;05 : 46;13 : 41;17 : 53;21 : 31;23 : 23;3
Di./Zo.;20;03 : 44;05 : 44;13 : 41;17 : 53;21 : 33;23 : 24;4
Lu./Ma.;21;03 : 42;05 : 42;13 : 41;17 : 55;21 : 34;23 : 26;5
Ma./Di.;22;03 : 40;05 : 41;13 : 41;17 : 55;21 : 36;23 : 28;6
Me./Wo.;23;03 : 38;05 : 41;13 : 41;17 : 55;21 : 38;23 : 30;7
Je./Do.;24;03 : 35;05 : 39;13 : 41;17 : 57;21 : 38;23 : 32;8
Ve./Vr.;25;03 : 33;05 : 37;13 : 41;17 : 57;21 : 40;23 : 35;9
Sa./Za.;26;03 : 33;05 : 37;13 : 41;17 : 57;21 : 42;23 : 37;10
Di./Zo.;27;03 : 31;05 : 35;13 : 41;17 : 57;21 : 42;23 : 39;11
Lu./Ma.;28;03 : 29;05 : 35;13 : 41;17 : 59;21 : 44;23 : 39;12
Ma./Di.;29;03 : 27;05 : 33;13 : 41;17 : 59;21 : 45;23 : 42;13
Me./Wo.;30;03 : 26;05 : 33;13 : 41;18 : 00;21 : 47;23 : 44;14
Je./Do.;31;03 : 24;05 : 33;13 : 41;18 : 00;21 : 47;23 : 44;15
