Juil./Juli;2018;Fajr;Chourouq;Dhor;Asr;Maghreb;Ichaa;Chawaal-Dhull Qi'dat
Di./Zo.;1;03 : 15;05 : 28;13 : 47;18 : 08;22 : 02;00 : 06;17
Lu./Ma.;2;03 : 15;05 : 30;13 : 47;18 : 08;22 : 02;00 : 04;18
Ma./Di.;3;03 : 17;05 : 30;13 : 48;18 : 08;22 : 02;00 : 04;19
Me./Wo.;4;03 : 18;05 : 30;13 : 48;18 : 08;22 : 02;00 : 04;20
Je./Do.;5;03 : 18;05 : 32;13 : 48;18 : 08;22 : 02;00 : 02;21
Ve./Vr.;6;03 : 20;05 : 33;13 : 48;18 : 08;22 : 00;00 : 02;22
Sa./Za.;7;03 : 22;05 : 33;13 : 48;18 : 08;22 : 00;00 : 00;23
Di./Zo.;8;03 : 22;05 : 33;13 : 48;18 : 08;22 : 00;00 : 00;24
Lu./Ma.;9;03 : 24;05 : 35;13 : 48;18 : 08;22 : 00;23 : 59;25
Ma./Di.;10;03 : 26;05 : 35;13 : 50;18 : 08;21 : 58;23 : 57;26
Me./Wo.;11;03 : 27;05 : 37;13 : 50;18 : 08;21 : 58;23 : 57;27
Je./Do.;12;03 : 29;05 : 37;13 : 50;18 : 08;21 : 56;23 : 55;28
Ve./Vr.;13;03 : 31;05 : 39;13 : 50;18 : 08;21 : 56;23 : 55;29
Sa./Za.;14;03 : 33;05 : 39;13 : 50;18 : 08;21 : 56;23 : 53;1
Di./Zo.;15;03 : 33;05 : 41;13 : 50;18 : 08;21 : 54;23 : 51;2
Lu./Ma.;16;03 : 35;05 : 42;13 : 50;18 : 06;21 : 53;23 : 50;3
Ma./Di.;17;03 : 38;05 : 44;13 : 50;18 : 06;21 : 53;23 : 48;4
Me./Wo.;18;03 : 40;05 : 44;13 : 50;18 : 06;21 : 51;23 : 46;5
Je./Do.;19;03 : 42;05 : 46;13 : 50;18 : 06;21 : 51;23 : 46;6
Ve./Vr.;20;03 : 42;05 : 46;13 : 50;18 : 06;21 : 49;23 : 44;7
Sa./Za.;21;03 : 45;05 : 48;13 : 50;18 : 06;21 : 49;23 : 42;8
Di./Zo.;22;03 : 47;05 : 50;13 : 50;18 : 04;21 : 47;23 : 41;9
Lu./Ma.;23;03 : 49;05 : 50;13 : 50;18 : 04;21 : 45;23 : 39;10
Ma./Di.;24;03 : 51;05 : 53;13 : 50;18 : 04;21 : 45;23 : 37;11
Me./Wo.;25;03 : 53;05 : 53;13 : 50;18 : 04;21 : 44;23 : 35;12
Je./Do.;26;03 : 54;05 : 55;13 : 50;18 : 04;21 : 42;23 : 32;13
Ve./Vr.;27;03 : 56;05 : 57;13 : 50;18 : 02;21 : 40;23 : 30;14
Sa./Za.;28;03 : 58;05 : 57;13 : 50;18 : 02;21 : 38;23 : 30;15
Di./Zo.;29;04 : 00;06 : 00;13 : 50;18 : 02;21 : 38;23 : 28;16
Lu./Ma.;30;04 : 03;06 : 00;13 : 50;18 : 00;21 : 36;23 : 26;17
Ma./Di.;31;04 : 05;06 : 02;13 : 50;18 : 00;21 : 34;23 : 23;18
