Août/Aug. ;2018;Fajr;Chourouq;Dhor;Asr;Maghreb;Ichaa;Dhull Qi'dat         Dhull Hijat
Me./Wo.;1;04 : 07;06 : 04;13 : 50;18 : 00;21 : 33;23 : 21;19
Je./Do.;2;04 : 09;06 : 04;13 : 50;18 : 00;21 : 31;23 : 19;20
Ve./Vr.;3;04 : 11;06 : 06;13 : 50;17 : 59;21 : 29;23 : 17;21
Sa./Za.;4;04 : 14;06 : 08;13 : 50;17 : 57;21 : 29;23 : 15;22
Di./Zo.;5;04 : 16;06 : 09;13 : 50;17 : 57;21 : 27;23 : 12;23
Lu./Ma.;6;04 : 18;06 : 11;13 : 50;17 : 57;21 : 24;23 : 10;24
Ma./Di.;7;04 : 20;06 : 13;13 : 50;17 : 55;21 : 24;23 : 08;25
Me./Wo.;8;04 : 21;06 : 13;13 : 50;17 : 55;21 : 22;23 : 06;26
Je./Do.;9;04 : 23;06 : 15;13 : 50;17 : 53;21 : 20;23 : 03;27
Ve./Vr.;10;04 : 25;06 : 18;13 : 50;17 : 53;21 : 17;23 : 01;28
Sa./Za.;11;04 : 27;06 : 18;13 : 50;17 : 53;21 : 17;22 : 59;29
Di./Zo.;12;04 : 30;06 : 20;13 : 50;17 : 51;21 : 15;22 : 57;30
Lu./Ma.;13;04 : 32;06 : 22;13 : 50;17 : 51;21 : 13;22 : 54;1
Ma./Di.;14;04 : 34;06 : 24;13 : 48;17 : 49;21 : 11;22 : 52;2
Me./Wo.;15;04 : 36;06 : 24;13 : 48;17 : 48;21 : 08;22 : 50;3
Je./Do.;16;04 : 39;06 : 26;13 : 48;17 : 48;21 : 06;22 : 47;4
Ve./Vr.;17;04 : 41;06 : 27;13 : 48;17 : 46;21 : 04;22 : 45;5
Sa./Za.;18;04 : 43;06 : 29;13 : 48;17 : 46;21 : 02;22 : 43;6
Di./Zo.;19;04 : 45;06 : 31;13 : 47;17 : 44;21 : 00;22 : 41;7
Lu./Ma.;20;04 : 47;06 : 33;13 : 47;17 : 44;20 : 59;22 : 38;8
Ma./Di.;21;04 : 48;06 : 34;13 : 47;17 : 42;20 : 57;22 : 36;9
Me./Wo.;22;04 : 50;06 : 36;13 : 47;17 : 42;20 : 55;22 : 34;10
Je./Do.;23;04 : 52;06 : 38;13 : 47;17 : 41;20 : 53;22 : 32;11
Ve./Vr.;24;04 : 54;06 : 38;13 : 46;17 : 39;20 : 51;22 : 29;12
Sa./Za.;25;04 : 56;06 : 40;13 : 46;17 : 37;20 : 48;22 : 27;13
Di./Zo.;26;04 : 59;06 : 42;13 : 46;17 : 37;20 : 46;22 : 23;14
Lu./Ma.;27;04 : 59;06 : 44;13 : 46;17 : 35;20 : 44;22 : 21;15
Ma./Di.;28;05 : 01;06 : 45;13 : 45;17 : 35;20 : 42;22 : 20;16
Me./Wo.;29;05 : 03;06 : 47;13 : 45;17 : 32;20 : 41;22 : 16;17
Je./Do.;30;05 : 05;06 : 49;13 : 45;17 : 32;20 : 39;22 : 14;18
Ve./Vr.;31;05 : 08;06 : 49;13 : 45;17 : 30;20 : 37;22 : 12;19
